<?xml version="1.0" encoding="utf-8"?>
<!-- Generator: Adobe Illustrator 26.0.3, SVG Export Plug-In . SVG Version: 6.00 Build 0)  -->
<svg version="1.1" id="Layer_1" xmlns="http://www.w3.org/2000/svg" xmlns:xlink="http://www.w3.org/1999/xlink" x="0px" y="0px"
	 viewBox="0 0 1686.9 462.8" style="enable-background:new 0 0 1686.9 462.8;" xml:space="preserve">
<style type="text/css">
	.st0{fill:#231F20;}
	.st1{fill:none;stroke:#231F20;stroke-width:5;}
	.st2{clip-path:url(#SVGID_00000001662439678752244420000001738352495598951821_);fill:none;stroke:#231F20;stroke-width:5;}
	.st3{fill:none;stroke:#231F20;stroke-width:2.5;}
	.st4{fill:#0039DE;}
	.st5{fill:#FF0000;}
	.st6{clip-path:url(#SVGID_00000059297207180986228440000004011366998336874417_);}
	.st7{clip-path:url(#SVGID_00000075862485865246975680000015060661342355759777_);fill:none;stroke:#231F20;stroke-width:2.5;}
	.st8{font-family:'IBMPlexSans-Bold';}
	.st9{font-size:12px;}
	.st10{clip-path:url(#SVGID_00000152255359210100383050000003175948829453857945_);fill:none;stroke:#231F20;stroke-width:2.5;}
	.st11{clip-path:url(#SVGID_00000054248380164108561180000006226806566556284081_);fill:none;stroke:#231F20;stroke-width:2.5;}
	.st12{clip-path:url(#SVGID_00000120521917910272820560000008957024552593614269_);fill:none;stroke:#231F20;stroke-width:2.5;}
	.st13{clip-path:url(#SVGID_00000023241012303429645990000002274426055321732266_);fill:none;stroke:#231F20;stroke-width:2.5;}
	.st14{clip-path:url(#SVGID_00000150821505615579186510000000636572162627001473_);fill:none;stroke:#231F20;stroke-width:2.5;}
	.st15{clip-path:url(#SVGID_00000020356694010451829590000011694140573554609057_);fill:none;stroke:#231F20;stroke-width:2.5;}
	.st16{clip-path:url(#SVGID_00000042729597882701095840000011043041691847137215_);fill:none;stroke:#231F20;stroke-width:2.5;}
	.st17{clip-path:url(#SVGID_00000017496394487904590090000001379503726355194788_);fill:none;stroke:#231F20;stroke-width:2.5;}
	.st18{fill:none;stroke:#231F20;stroke-width:5;stroke-dasharray:11.984,11.984;}
	.st19{fill:none;stroke:#231F20;stroke-width:5;stroke-dasharray:12,12;}
	.st20{fill:none;stroke:#231F20;stroke-width:5;stroke-dasharray:9,9;}
	.st21{fill:none;stroke:#231F20;stroke-width:5;stroke-dasharray:12.021,12.021;}
</style>
<g>
	<path class="st0" d="M343.3,44.2c-2.2,0-3.2-1.2-3.2-3c0-0.4,0-0.8,0.1-1.3l0.2-1.1h-0.1c-2,4.1-4.4,6-8,6c-4.5,0-7.5-3.6-7.5-9.5
		c0-7.3,3.9-16.5,12.1-16.5c3,0,5.8,1.5,6.5,4.6h0.2l0.8-4h3.7l-4.3,21.5h3.5l-0.6,3.3H343.3z M338.5,39c1.6-1.6,2.6-3.5,3.1-6l1-5
		c0.6-3.1-1-5.8-5.4-5.8c-4,0-6.7,2.7-7.7,7.5l-0.7,3.6c-0.1,0.8-0.2,1.6-0.2,2.4c0,3.2,1.4,5.6,4.8,5.6
		C335.5,41.4,337.1,40.4,338.5,39z"/>
	<path class="st0" d="M351,40.3l2.5-2.3c1.7,2.3,3.9,3.6,6.8,3.6c3.3,0,5.6-1.6,5.6-4.7c0-1.7-0.8-2.9-3.6-3.5l-1.9-0.4
		c-3.7-0.8-6.6-2.3-6.6-6.4c0-4.1,3-7.8,9.2-7.8c3.6,0,6.2,1.3,8.1,3.6l-2.5,2.3c-1.1-1.5-2.9-2.7-5.8-2.7c-3.6,0-5.3,1.8-5.3,4.3
		c0,1.7,0.8,2.8,3.6,3.4l1.9,0.4c4,0.8,6.6,2.4,6.6,6.5c0,5-3.9,8.1-9.2,8.1C356.6,44.8,353,43.2,351,40.3z"/>
	<path class="st0" d="M373.4,40.3l2.5-2.3c1.7,2.3,3.9,3.6,6.8,3.6c3.3,0,5.6-1.6,5.6-4.7c0-1.7-0.8-2.9-3.6-3.5l-1.9-0.4
		c-3.7-0.8-6.6-2.3-6.6-6.4c0-4.1,3-7.8,9.2-7.8c3.6,0,6.2,1.3,8.1,3.6l-2.5,2.3c-1.1-1.5-2.9-2.7-5.8-2.7c-3.6,0-5.3,1.8-5.3,4.3
		c0,1.7,0.8,2.8,3.6,3.4l1.9,0.4c4,0.8,6.6,2.4,6.6,6.5c0,5-3.9,8.1-9.2,8.1C378.9,44.8,375.3,43.2,373.4,40.3z"/>
	<path class="st0" d="M397.6,34.4c0-8.2,5.2-15.6,13-15.6c4.2,0,8,2.2,8,6.6c0,5.4-5.6,8-17.1,8.1c-0.1,0.7-0.1,1.5-0.1,2
		c0,3.5,2.1,5.9,5.9,5.9c3.1,0,5.7-1.6,7.6-3.9l2.4,2.2c-3.1,3.7-6.7,5.1-10.2,5.1C401.1,44.8,397.6,41.1,397.6,34.4z M402.2,29.3
		l-0.3,1.4c10.6-0.4,12.8-1.9,12.8-5.3c0-2.6-2.2-3.4-4.6-3.4C406.3,22,403.2,24.9,402.2,29.3z"/>
	<path class="st0" d="M420.5,40.3L423,38c1.7,2.3,3.9,3.6,6.8,3.6c3.3,0,5.6-1.6,5.6-4.7c0-1.7-0.8-2.9-3.6-3.5l-1.9-0.4
		c-3.7-0.8-6.6-2.3-6.6-6.4c0-4.1,3-7.8,9.2-7.8c3.6,0,6.2,1.3,8.1,3.6l-2.5,2.3c-1.1-1.5-2.9-2.7-5.8-2.7c-3.6,0-5.3,1.8-5.3,4.3
		c0,1.7,0.8,2.8,3.6,3.4l1.9,0.4c4,0.8,6.6,2.4,6.6,6.5c0,5-3.9,8.1-9.2,8.1C426.1,44.8,422.5,43.2,420.5,40.3z"/>
	<path class="st0" d="M442.8,40.3l2.5-2.3c1.7,2.3,3.9,3.6,6.8,3.6c3.3,0,5.6-1.6,5.6-4.7c0-1.7-0.8-2.9-3.6-3.5l-1.9-0.4
		c-3.7-0.8-6.6-2.3-6.6-6.4c0-4.1,3-7.8,9.2-7.8c3.6,0,6.2,1.3,8.1,3.6l-2.5,2.3c-1.1-1.5-2.9-2.7-5.8-2.7c-3.6,0-5.3,1.8-5.3,4.3
		c0,1.7,0.8,2.8,3.6,3.4l1.9,0.4c4,0.8,6.6,2.4,6.6,6.5c0,5-3.9,8.1-9.2,8.1C448.4,44.8,444.8,43.2,442.8,40.3z"/>
</g>
<g>
	<path class="st0" d="M744.1,34.7c0-8.6,4.7-15.8,12.1-15.8c4.4,0,7.2,2.4,8.2,5.8l-3.1,1.4c-0.8-2.6-2.5-3.9-5.2-3.9
		c-3.9,0-6.5,2.7-7.3,7.1l-0.8,4c-0.1,0.7-0.2,1.6-0.2,2.2c0,3.6,1.9,6,5.7,6c2.4,0,4.4-1.2,6.3-4.8l2.9,1.4
		c-2.1,4.3-5.4,6.7-9.6,6.7C747.5,44.8,744.1,40.8,744.1,34.7z"/>
	<path class="st0" d="M767.2,34.6c0-8.3,5.2-15.7,12.8-15.7c5.2,0,8.9,3.5,8.9,10.2c0,8.3-5.2,15.7-12.8,15.7
		C771,44.8,767.2,41.3,767.2,34.6z M784.3,33.7l0.7-3.6c0.1-0.7,0.2-1.4,0.2-2.2c0-3.5-2-5.8-5.8-5.8c-3.6,0-6.7,2.7-7.7,7.7
		l-0.7,3.6c-0.1,0.7-0.2,1.4-0.2,2.2c0,3.5,2,5.8,5.8,5.8C780.2,41.5,783.3,38.8,784.3,33.7z"/>
	<path class="st0" d="M793,44.2l5-24.8h3.7l-1,4.9h0.2c1.7-3.7,3.9-5.5,7.5-5.5c3.5,0,5.4,2.1,5.8,5.5h0.3c1.7-3.7,4.1-5.5,7.7-5.5
		c4.1,0,6.2,2.5,6.2,6.8c0,1-0.1,2-0.3,3.2l-2.4,12h3.5l-0.6,3.3h-3.5c-1.9,0-3.2-0.9-3.2-2.7c0-0.3,0-0.6,0.1-1.1l2.3-11.5
		c0.2-1,0.3-1.9,0.3-2.6c0-2.6-1.2-4-3.8-4c-1.5,0-2.9,0.6-4.2,2c-1.6,1.6-2.7,4.2-3.1,6.2l-2.8,13.8h-3.7l3.1-15.3
		c0.2-1,0.3-2,0.3-2.8c0-2.5-1.1-3.9-3.5-3.9c-1.7,0-3.2,0.8-4.3,1.9c-1.8,1.8-3,4.3-3.4,6.2l-2.8,13.8H793z"/>
	<path class="st0" d="M838.7,19.4h3.7l-1.1,5.4h0.1c2-4.1,4.4-6,8-6c4.5,0,7.5,3.6,7.5,9.5c0,7.3-3.9,16.5-12.1,16.5
		c-3,0-5.8-1.5-6.5-4.6h-0.2l-2.7,13.6h-3.7L838.7,19.4z M852.2,33.9l0.7-3.6c0.1-0.8,0.2-1.6,0.2-2.4c0-3.2-1.4-5.6-4.8-5.6
		c-2.2,0-3.7,1-5.2,2.4c-1.6,1.6-2.6,3.5-3.1,6l-1,5c-0.6,3.1,1,5.8,5.4,5.8C848.6,41.4,851.3,38.7,852.2,33.9z"/>
	<path class="st0" d="M865.3,44.2c-2.3,0-3.4-1.2-3.4-3c0-0.3,0-0.7,0.1-1.2l4.1-20.6h3.7l-4.3,21.5h3.5l-0.6,3.3H865.3z M867.3,12
		c0-0.2,0-0.4,0.2-1.3c0.2-1.2,1-1.9,2.6-1.9c1.5,0,2,0.8,2,1.7c0,0.2,0,0.4-0.2,1.3c-0.2,1.2-1,1.9-2.6,1.9
		C867.8,13.6,867.3,12.9,867.3,12z"/>
	<path class="st0" d="M877.9,44.2c-2.3,0-3.4-1.2-3.4-3c0-0.3,0-0.7,0.1-1.2L881,8.7h3.7l-6.5,32.3h3.7l-0.6,3.3H877.9z"/>
	<path class="st0" d="M887.1,34.4c0-8.2,5.2-15.6,13-15.6c4.2,0,8,2.2,8,6.6c0,5.4-5.6,8-17.1,8.1c-0.1,0.7-0.1,1.5-0.1,2
		c0,3.5,2.1,5.9,5.9,5.9c3.1,0,5.7-1.6,7.6-3.9l2.4,2.2c-3.1,3.7-6.7,5.1-10.2,5.1C890.6,44.8,887.1,41.1,887.1,34.4z M891.7,29.3
		l-0.3,1.4c10.6-0.4,12.8-1.9,12.8-5.3c0-2.6-2.2-3.4-4.6-3.4C895.8,22,892.7,24.9,891.7,29.3z"/>
</g>
<g>
	<path class="st0" d="M1168.7,34.4c0-8.2,5.2-15.6,13-15.6c4.2,0,8,2.2,8,6.6c0,5.4-5.6,8-17.1,8.1c-0.1,0.7-0.1,1.5-0.1,2
		c0,3.5,2.1,5.9,5.9,5.9c3.1,0,5.7-1.6,7.6-3.9l2.4,2.2c-3.1,3.7-6.7,5.1-10.2,5.1C1172.2,44.8,1168.7,41.1,1168.7,34.4z
		 M1173.3,29.3l-0.3,1.4c10.6-0.4,12.8-1.9,12.8-5.3c0-2.6-2.2-3.4-4.6-3.4C1177.4,22,1174.2,24.9,1173.3,29.3z"/>
	<path class="st0" d="M1197.6,44.2l-3.8-24.8h3.6l1.8,12.2l1,9h0.2l4.5-9l6.6-12.2h3.9l-13.5,24.8H1197.6z"/>
	<path class="st0" d="M1234.5,44.2c-2.2,0-3.2-1.2-3.2-3c0-0.4,0-0.8,0.1-1.3l0.2-1.1h-0.1c-2,4.1-4.4,6-8,6c-4.5,0-7.5-3.6-7.5-9.5
		c0-7.3,3.9-16.5,12.1-16.5c3,0,5.8,1.5,6.5,4.6h0.2l0.8-4h3.7l-4.3,21.5h3.5l-0.6,3.3H1234.5z M1229.7,39c1.6-1.6,2.6-3.5,3.1-6
		l1-5c0.6-3.1-1-5.8-5.4-5.8c-4,0-6.7,2.7-7.7,7.5l-0.7,3.6c-0.1,0.8-0.2,1.6-0.2,2.4c0,3.2,1.4,5.6,4.8,5.6
		C1226.6,41.4,1228.2,40.4,1229.7,39z"/>
	<path class="st0" d="M1247.3,44.2c-2.3,0-3.4-1.2-3.4-3c0-0.3,0-0.7,0.1-1.2l6.3-31.3h3.7l-6.5,32.3h3.7l-0.6,3.3H1247.3z"/>
	<path class="st0" d="M1264.3,19.4l-3.1,15.3c-0.2,1-0.2,2-0.2,2.5c0,2.7,1.1,4.2,3.7,4.2c1.7,0,3.2-0.6,4.5-2
		c1.8-1.8,2.9-4.3,3.3-6.2l2.8-13.8h3.7l-4.3,21.5h3.5l-0.6,3.3h-3.4c-2.1,0-3.2-1.2-3.2-3c0-0.3,0-0.7,0.2-1.4l0.1-0.5h-0.2
		c-1.7,3.7-4,5.5-7.4,5.5c-4.2,0-6.3-2.6-6.3-6.9c0-0.9,0.1-2,0.3-3.2l3.1-15.3H1264.3z"/>
	<path class="st0" d="M1302.1,44.2c-2.2,0-3.2-1.2-3.2-3c0-0.4,0-0.8,0.1-1.3l0.2-1.1h-0.1c-2,4.1-4.4,6-8,6c-4.5,0-7.5-3.6-7.5-9.5
		c0-7.3,3.9-16.5,12.1-16.5c3,0,5.8,1.5,6.5,4.6h0.2l0.8-4h3.7l-4.3,21.5h3.5l-0.6,3.3H1302.1z M1297.3,39c1.6-1.6,2.6-3.5,3.1-6
		l1-5c0.6-3.1-1-5.8-5.4-5.8c-4,0-6.7,2.7-7.7,7.5l-0.7,3.6c-0.1,0.8-0.2,1.6-0.2,2.4c0,3.2,1.4,5.6,4.8,5.6
		C1294.3,41.4,1295.9,40.4,1297.3,39z"/>
	<path class="st0" d="M1315.6,44.2c-2.3,0-3.4-1.2-3.4-3c0-0.3,0-0.7,0.1-1.2l3.5-17.3h-3.6l0.6-3.3h1.9c1.8,0,2.2-0.6,2.5-2.4
		l0.9-4.5h3.4l-1.3,6.9h5.2l-0.6,3.3h-5.2l-3.7,18.2h4.8l-0.6,3.3H1315.6z"/>
	<path class="st0" d="M1326.6,34.4c0-8.2,5.2-15.6,13-15.6c4.2,0,8,2.2,8,6.6c0,5.4-5.6,8-17.1,8.1c-0.1,0.7-0.1,1.5-0.1,2
		c0,3.5,2.1,5.9,5.9,5.9c3.1,0,5.7-1.6,7.6-3.9l2.4,2.2c-3.1,3.7-6.7,5.1-10.2,5.1C1330.1,44.8,1326.6,41.1,1326.6,34.4z
		 M1331.2,29.3l-0.3,1.4c10.6-0.4,12.8-1.9,12.8-5.3c0-2.6-2.2-3.4-4.6-3.4C1335.3,22,1332.1,24.9,1331.2,29.3z"/>
</g>
<line class="st1" x1="285" y1="79.2" x2="501" y2="79.2"/>
<line class="st1" x1="717.5" y1="79.5" x2="933.5" y2="79.5"/>
<line class="st1" x1="1149" y1="79.2" x2="1365" y2="79.2"/>
<g>
	<path class="st0" d="M1294.8,190.7v-33.5h13.3c6,0,9.4,3.7,9.4,9.6c0,5.9-3.4,9.6-9.4,9.6h-9.3v14.3H1294.8z M1298.8,172.8h9.3
		c3.2,0,5-1.7,5-4.8v-2.5c0-3.1-1.9-4.8-5-4.8h-9.3V172.8z"/>
	<path class="st0" d="M1341,190.7c-2.8,0-4-1.7-4.3-4h-0.2c-1.1,3-3.7,4.6-7.2,4.6c-5.2,0-8.3-2.9-8.3-7.5c0-4.7,3.4-7.2,10.6-7.2
		h4.9v-2.4c0-3.5-1.9-5.4-5.9-5.4c-3,0-4.9,1.4-6.3,3.7l-2.3-2.2c1.3-2.6,4.3-4.8,8.8-4.8c6,0,9.5,3.1,9.5,8.4v13.6h2.8v3.4H1341z
		 M1336.5,183.5v-4.1h-5.1c-4.4,0-6.3,1.3-6.3,3.7v1c0,2.4,1.9,3.8,4.9,3.8C1333.8,188,1336.5,186,1336.5,183.5z"/>
	<path class="st0" d="M1348.7,190.7v-24.8h3.8v4.6h0.2c0.9-2.4,3.1-4.6,7.2-4.6h1.5v3.8h-2.3c-4.1,0-6.6,1.8-6.6,4.1v16.8H1348.7z"
		/>
	<path class="st0" d="M1370.4,190.7c-2.6,0-4.1-1.7-4.1-4v-31.5h3.8v32.2h3.6v3.4H1370.4z"/>
	<path class="st0" d="M1378.9,157.9v-0.6c0-1.3,0.7-2.2,2.4-2.2c1.6,0,2.4,0.9,2.4,2.2v0.6c0,1.3-0.7,2.2-2.4,2.2
		C1379.6,160.1,1378.9,159.2,1378.9,157.9z M1379.3,165.9h3.8v24.8h-3.8V165.9z"/>
	<path class="st0" d="M1409.3,190.7c-2.8,0-4-1.7-4.3-4h-0.2c-1.1,3-3.7,4.6-7.2,4.6c-5.2,0-8.3-2.9-8.3-7.5c0-4.7,3.4-7.2,10.6-7.2
		h4.9v-2.4c0-3.5-1.9-5.4-5.9-5.4c-3,0-4.9,1.4-6.3,3.7l-2.3-2.2c1.3-2.6,4.3-4.8,8.8-4.8c6,0,9.5,3.1,9.5,8.4v13.6h2.8v3.4H1409.3z
		 M1404.8,183.5v-4.1h-5.1c-4.4,0-6.3,1.3-6.3,3.7v1c0,2.4,1.9,3.8,4.9,3.8C1402.1,188,1404.8,186,1404.8,183.5z"/>
	<path class="st0" d="M1417,190.7v-24.8h3.8v4h0.2c1.1-2.5,2.8-4.6,6.7-4.6c3.3,0,6.2,1.5,7.6,5h0.1c0.9-2.7,3.3-5,7.5-5
		c5,0,8.1,3.5,8.1,9.5v15.9h-3.8v-15.2c0-4.4-1.7-6.7-5.4-6.7c-3,0-5.8,1.5-5.8,4.7v17.2h-3.8v-15.2c0-4.4-1.7-6.7-5.3-6.7
		c-3,0-5.9,1.5-5.9,4.7v17.2H1417z"/>
	<path class="st0" d="M1457,178.3c0-7.9,4.4-13,11.1-13c6.6,0,10.7,5.1,10.7,12.1v1.8h-17.8v1.2c0,4.3,2.7,7.5,7.3,7.5
		c3.1,0,5.5-1.5,6.8-4.3l2.7,2c-1.6,3.4-5.1,5.7-9.8,5.7C1461.5,191.3,1457,186.2,1457,178.3z M1461.1,176v0.3h13.7v-0.5
		c0-4.4-2.6-7.3-6.6-7.3C1464,168.6,1461.1,171.7,1461.1,176z"/>
	<path class="st0" d="M1485.2,190.7v-24.8h3.8v4h0.2c1.2-2.8,3.3-4.6,7-4.6c5.1,0,8.3,3.5,8.3,9.5v15.9h-3.8v-15.2
		c0-4.4-1.9-6.7-5.6-6.7c-3.1,0-6,1.5-6,4.7v17.2H1485.2z"/>
	<path class="st0" d="M1518,190.7c-2.6,0-4.1-1.7-4.1-4.1v-17.3h-4.1v-3.4h2.3c1.6,0,2.2-0.6,2.2-2.3V159h3.5v6.9h5.4v3.4h-5.4v18h5
		v3.4H1518z"/>
	<path class="st0" d="M1547.3,190.7c-2.8,0-4-1.7-4.3-4h-0.2c-1.1,3-3.7,4.6-7.2,4.6c-5.2,0-8.3-2.9-8.3-7.5c0-4.7,3.4-7.2,10.6-7.2
		h4.9v-2.4c0-3.5-1.9-5.4-5.9-5.4c-3,0-4.9,1.4-6.3,3.7l-2.3-2.2c1.3-2.6,4.3-4.8,8.8-4.8c6,0,9.5,3.1,9.5,8.4v13.6h2.8v3.4H1547.3z
		 M1542.8,183.5v-4.1h-5.1c-4.4,0-6.3,1.3-6.3,3.7v1c0,2.4,1.9,3.8,4.9,3.8C1540.1,188,1542.8,186,1542.8,183.5z"/>
	<path class="st0" d="M1555,190.7v-24.8h3.8v4.6h0.2c0.9-2.4,3.1-4.6,7.2-4.6h1.5v3.8h-2.3c-4.1,0-6.6,1.8-6.6,4.1v16.8H1555z"/>
	<path class="st0" d="M1572.1,157.9v-0.6c0-1.3,0.7-2.2,2.4-2.2c1.6,0,2.4,0.9,2.4,2.2v0.6c0,1.3-0.7,2.2-2.4,2.2
		C1572.9,160.1,1572.1,159.2,1572.1,157.9z M1572.6,165.9h3.8v24.8h-3.8V165.9z"/>
	<path class="st0" d="M1602.6,190.7c-2.8,0-4-1.7-4.3-4h-0.2c-1.1,3-3.7,4.6-7.2,4.6c-5.2,0-8.3-2.9-8.3-7.5c0-4.7,3.4-7.2,10.6-7.2
		h4.9v-2.4c0-3.5-1.9-5.4-5.9-5.4c-3,0-4.9,1.4-6.3,3.7l-2.3-2.2c1.3-2.6,4.3-4.8,8.8-4.8c6,0,9.5,3.1,9.5,8.4v13.6h2.8v3.4H1602.6z
		 M1598.1,183.5v-4.1h-5.1c-4.4,0-6.3,1.3-6.3,3.7v1c0,2.4,1.9,3.8,4.9,3.8C1595.3,188,1598.1,186,1598.1,183.5z"/>
	<path class="st0" d="M1610.2,190.7v-24.8h3.8v4h0.2c1.2-2.8,3.3-4.6,7-4.6c5.1,0,8.3,3.5,8.3,9.5v15.9h-3.8v-15.2
		c0-4.4-1.9-6.7-5.6-6.7c-3.1,0-6,1.5-6,4.7v17.2H1610.2z"/>
	<path class="st0" d="M1635.1,186.4l2.7-2.2c1.9,2.4,4.2,3.8,7.3,3.8c3.3,0,5.2-1.5,5.2-4c0-1.9-1.1-3.4-4.3-3.9l-2-0.3
		c-4.6-0.7-8-2.5-8-7.2c0-4.9,3.8-7.3,8.8-7.3c4,0,6.6,1.5,8.6,4l-2.5,2.3c-1.1-1.5-3.2-3-6.4-3c-3.2,0-4.8,1.5-4.8,3.8
		c0,2.4,1.7,3.4,4.8,3.8l1.9,0.3c5.5,0.8,7.6,3.2,7.6,7c0,4.8-3.5,7.7-9.2,7.7C1640.4,191.3,1637.3,189.3,1635.1,186.4z"/>
</g>
<g>
	<path class="st0" d="M32.3,172.7c0-11.2,5.6-17.3,14.2-17.3c8.6,0,14.2,6.1,14.2,17.3S55.2,190,46.5,190
		C37.9,190,32.3,183.9,32.3,172.7z M56.4,175.5v-5.6c0-6.6-4.1-10.9-9.9-10.9c-5.8,0-9.9,4.3-9.9,10.9v5.6c0,6.6,4.1,10.9,9.9,10.9
		C52.3,186.4,56.4,182.1,56.4,175.5z"/>
	<path class="st0" d="M67.6,189.4v-24.8h3.8v4.6h0.2c0.9-2.4,3.1-4.6,7.2-4.6h1.5v3.8h-2.3c-4.1,0-6.6,1.8-6.6,4.1v16.8H67.6z"/>
	<path class="st0" d="M93,199.6c-7.7,0-10.9-2.2-10.9-6.1c0-2.7,1.5-4.1,3.9-4.8v-0.5c-1.4-0.7-2.2-1.8-2.2-3.5
		c0-2.5,1.8-3.7,4.3-4.3v-0.2c-2.9-1.4-4.7-4.1-4.7-7.6c0-5,3.7-8.5,9.3-8.5c1.8,0,3.4,0.3,4.7,1v-0.4c0-1.9,0.8-3.3,2.9-3.3h3.7
		v3.4h-4.7v1.6c1.8,1.5,2.8,3.7,2.8,6.4c0,5-3.7,8.5-9.4,8.5c-0.8,0-1.7-0.1-2.4-0.2c-1.6,0.4-3.3,1.2-3.3,2.8
		c0,1.5,1.5,1.9,3.8,1.9h5.3c6.1,0,8.8,2.5,8.8,6.6C105,197.3,101,199.6,93,199.6z M96.3,189.2H88c-1.6,0.7-2.3,1.8-2.3,3.4
		c0,2.2,1.5,3.9,5.4,3.9h3.6c4.3,0,6.8-1.3,6.8-4C101.4,190.5,100.1,189.2,96.3,189.2z M98.2,173.3V172c0-3.3-2.1-4.8-5.3-4.8
		c-3.3,0-5.3,1.5-5.3,4.8v1.3c0,3.3,2.1,4.8,5.3,4.8C96.1,178.1,98.2,176.6,98.2,173.3z"/>
	<path class="st0" d="M127.4,189.4c-2.8,0-4-1.7-4.3-4h-0.2c-1.1,3-3.7,4.6-7.2,4.6c-5.2,0-8.3-2.9-8.3-7.5c0-4.7,3.4-7.2,10.6-7.2
		h4.9v-2.4c0-3.5-1.9-5.4-5.9-5.4c-3,0-4.9,1.4-6.3,3.7l-2.3-2.2c1.3-2.6,4.3-4.8,8.8-4.8c6,0,9.5,3.1,9.5,8.4v13.6h2.8v3.4H127.4z
		 M122.8,182.2v-4.1h-5.1c-4.4,0-6.3,1.3-6.3,3.7v1c0,2.4,1.9,3.8,4.9,3.8C120.1,186.7,122.8,184.8,122.8,182.2z"/>
	<path class="st0" d="M135,189.4v-24.8h3.8v4h0.2c1.2-2.8,3.3-4.6,7-4.6c5.1,0,8.3,3.5,8.3,9.5v15.9h-3.8v-15.2
		c0-4.4-1.9-6.7-5.6-6.7c-3.1,0-6,1.5-6,4.7v17.2H135z"/>
	<path class="st0" d="M161.8,156.7v-0.6c0-1.3,0.7-2.2,2.4-2.2c1.6,0,2.4,0.9,2.4,2.2v0.6c0,1.3-0.7,2.2-2.4,2.2
		C162.5,158.9,161.8,158,161.8,156.7z M162.2,164.7h3.8v24.8h-3.8V164.7z"/>
	<path class="st0" d="M171.9,185.2l2.7-2.2c1.9,2.4,4.2,3.8,7.3,3.8c3.3,0,5.2-1.5,5.2-4c0-1.9-1.1-3.4-4.3-3.9l-2-0.3
		c-4.6-0.7-8-2.5-8-7.2c0-4.9,3.8-7.3,8.8-7.3c4,0,6.6,1.5,8.6,4l-2.5,2.3c-1.1-1.5-3.2-3-6.4-3c-3.2,0-4.8,1.5-4.8,3.8
		c0,2.4,1.7,3.4,4.8,3.8l1.9,0.3c5.5,0.8,7.6,3.2,7.6,7c0,4.8-3.5,7.7-9.2,7.7C177.1,190,174.1,188.1,171.9,185.2z"/>
	<path class="st0" d="M215.6,189.4c-2.8,0-4-1.7-4.3-4h-0.2c-1.1,3-3.7,4.6-7.2,4.6c-5.2,0-8.3-2.9-8.3-7.5c0-4.7,3.4-7.2,10.6-7.2
		h4.9v-2.4c0-3.5-1.9-5.4-5.9-5.4c-3,0-4.9,1.4-6.3,3.7l-2.3-2.2c1.3-2.6,4.3-4.8,8.8-4.8c6,0,9.5,3.1,9.5,8.4v13.6h2.8v3.4H215.6z
		 M211.1,182.2v-4.1H206c-4.4,0-6.3,1.3-6.3,3.7v1c0,2.4,1.9,3.8,4.9,3.8C208.4,186.7,211.1,184.8,211.1,182.2z"/>
	<path class="st0" d="M228.7,189.4c-2.6,0-4.1-1.7-4.1-4.1V168h-4.1v-3.4h2.3c1.6,0,2.2-0.6,2.2-2.3v-4.6h3.5v6.9h5.4v3.4h-5.4v18h5
		v3.4H228.7z"/>
	<path class="st0" d="M239.7,156.7v-0.6c0-1.3,0.7-2.2,2.4-2.2c1.6,0,2.4,0.9,2.4,2.2v0.6c0,1.3-0.7,2.2-2.4,2.2
		C240.4,158.9,239.7,158,239.7,156.7z M240.1,164.7h3.8v24.8h-3.8V164.7z"/>
	<path class="st0" d="M250.3,177c0-7.9,4.6-13,11.2-13c6.6,0,11.2,5.1,11.2,13c0,7.9-4.6,13-11.2,13
		C254.8,190,250.3,184.9,250.3,177z M268.5,178.8v-3.6c0-5.2-2.9-7.8-7.1-7.8c-4.1,0-7.1,2.5-7.1,7.8v3.6c0,5.2,2.9,7.8,7.1,7.8
		C265.6,186.6,268.5,184.1,268.5,178.8z"/>
	<path class="st0" d="M279,189.4v-24.8h3.8v4h0.2c1.2-2.8,3.3-4.6,7-4.6c5.1,0,8.3,3.5,8.3,9.5v15.9h-3.8v-15.2
		c0-4.4-1.9-6.7-5.6-6.7c-3.1,0-6,1.5-6,4.7v17.2H279z"/>
	<path class="st0" d="M303.9,185.2l2.7-2.2c1.9,2.4,4.2,3.8,7.3,3.8c3.3,0,5.2-1.5,5.2-4c0-1.9-1.1-3.4-4.3-3.9l-2-0.3
		c-4.6-0.7-8-2.5-8-7.2c0-4.9,3.8-7.3,8.8-7.3c4,0,6.6,1.5,8.6,4l-2.5,2.3c-1.1-1.5-3.2-3-6.4-3c-3.2,0-4.8,1.5-4.8,3.8
		c0,2.4,1.7,3.4,4.8,3.8l1.9,0.3c5.5,0.8,7.6,3.2,7.6,7c0,4.8-3.5,7.7-9.2,7.7C309.1,190,306.1,188.1,303.9,185.2z"/>
</g>
<g>
	<defs>
		<rect id="SVGID_1_" x="16" y="-10.5" width="1701.2" height="466.9"/>
	</defs>
	<clipPath id="SVGID_00000013152835279368351130000013465117719288359602_">
		<use xlink:href="#SVGID_1_"  style="overflow:visible;"/>
	</clipPath>
	
		<circle style="clip-path:url(#SVGID_00000013152835279368351130000013465117719288359602_);fill:none;stroke:#231F20;stroke-width:5;" cx="177.5" cy="77" r="55"/>
</g>
<rect x="581.5" y="27.3" class="st3" width="57" height="100"/>
<g>
	<path class="st0" d="M541.9,189.8l-11.1-33.5h4.3l5.5,16.9l3.7,12.6h0.2l3.8-12.6l5.6-16.9h4.2l-11.3,33.5H541.9z"/>
	<path class="st0" d="M559.8,177.4c0-7.9,4.6-13,11.2-13c6.6,0,11.2,5.1,11.2,13c0,7.9-4.6,13-11.2,13
		C564.4,190.4,559.8,185.3,559.8,177.4z M578,179.2v-3.6c0-5.2-2.9-7.8-7.1-7.8c-4.1,0-7.1,2.5-7.1,7.8v3.6c0,5.2,2.9,7.8,7.1,7.8
		C575.1,186.9,578,184.4,578,179.2z"/>
	<path class="st0" d="M594,189.8c-2.6,0-4.1-1.7-4.1-4.1v-17.3h-4.1V165h2.3c1.6,0,2.2-0.6,2.2-2.3v-4.6h3.5v6.9h5.4v3.4h-5.4v18h5
		v3.4H594z"/>
	<path class="st0" d="M604.9,157v-0.6c0-1.3,0.7-2.2,2.4-2.2c1.6,0,2.4,0.9,2.4,2.2v0.6c0,1.3-0.7,2.2-2.4,2.2
		C605.6,159.2,604.9,158.3,604.9,157z M605.4,165h3.8v24.8h-3.8V165z"/>
	<path class="st0" d="M617.4,189.8V165h3.8v4h0.2c1.2-2.8,3.3-4.6,7-4.6c5.1,0,8.3,3.5,8.3,9.5v15.9h-3.8v-15.2
		c0-4.4-1.9-6.7-5.6-6.7c-3.1,0-6,1.5-6,4.7v17.2H617.4z"/>
	<path class="st0" d="M653.5,200c-7.7,0-10.9-2.2-10.9-6.1c0-2.7,1.5-4.1,3.9-4.8v-0.5c-1.4-0.7-2.2-1.8-2.2-3.5
		c0-2.5,1.8-3.7,4.3-4.3v-0.2c-2.9-1.4-4.7-4.1-4.7-7.6c0-5,3.7-8.5,9.3-8.5c1.8,0,3.4,0.3,4.7,1V165c0-1.9,0.8-3.3,2.9-3.3h3.7v3.4
		h-4.7v1.6c1.8,1.5,2.8,3.7,2.8,6.4c0,5-3.7,8.5-9.4,8.5c-0.8,0-1.7-0.1-2.4-0.2c-1.6,0.4-3.3,1.2-3.3,2.8c0,1.5,1.5,1.9,3.8,1.9
		h5.3c6.1,0,8.8,2.5,8.8,6.6C665.5,197.6,661.5,200,653.5,200z M656.8,189.5h-8.3c-1.6,0.7-2.3,1.8-2.3,3.4c0,2.2,1.5,3.9,5.4,3.9
		h3.6c4.3,0,6.8-1.3,6.8-4C661.9,190.8,660.6,189.5,656.8,189.5z M658.6,173.7v-1.3c0-3.3-2.1-4.8-5.3-4.8c-3.3,0-5.3,1.5-5.3,4.8
		v1.3c0,3.3,2.1,4.8,5.3,4.8C656.6,178.5,658.6,176.9,658.6,173.7z"/>
	<path class="st0" d="M667.6,185.5l2.7-2.2c1.9,2.4,4.2,3.8,7.3,3.8c3.3,0,5.2-1.5,5.2-4c0-1.9-1.1-3.4-4.3-3.9l-2-0.3
		c-4.6-0.7-8-2.5-8-7.2c0-4.9,3.8-7.3,8.8-7.3c4,0,6.6,1.5,8.6,4l-2.5,2.3c-1.1-1.5-3.2-3-6.4-3c-3.2,0-4.8,1.5-4.8,3.8
		c0,2.4,1.7,3.4,4.8,3.8l1.9,0.3c5.5,0.8,7.6,3.2,7.6,7c0,4.8-3.5,7.7-9.2,7.7C672.8,190.4,669.8,188.4,667.6,185.5z"/>
</g>
<line class="st3" x1="576.5" y1="134.9" x2="643.4" y2="19.8"/>
<g>
	<path class="st0" d="M963.5,189.2h-4v-33.5h13.3c5.9,0,9.4,3.4,9.4,9.5c0,4.9-2.4,8.2-6.7,9.2l7.7,14.8h-4.6l-7.2-14.4h-7.8V189.2z
		 M972.8,171.3c3.2,0,5-1.7,5-4.8V164c0-3.1-1.9-4.8-5-4.8h-9.3v12.1H972.8z"/>
	<path class="st0" d="M1007.4,189.2c-2.8,0-4-1.7-4.3-4h-0.2c-1.1,3-3.7,4.6-7.2,4.6c-5.2,0-8.3-2.9-8.3-7.5c0-4.7,3.4-7.2,10.6-7.2
		h4.9v-2.4c0-3.5-1.9-5.4-5.9-5.4c-3,0-4.9,1.4-6.3,3.7l-2.3-2.2c1.3-2.6,4.3-4.8,8.8-4.8c6,0,9.5,3.1,9.5,8.4v13.6h2.8v3.4H1007.4z
		 M1002.8,182v-4.1h-5.1c-4.4,0-6.3,1.3-6.3,3.7v1c0,2.4,1.9,3.8,4.9,3.8C1000.1,186.5,1002.8,184.5,1002.8,182z"/>
	<path class="st0" d="M1015,189.2v-24.8h3.8v4h0.2c1.2-2.8,3.3-4.6,7-4.6c5.1,0,8.3,3.5,8.3,9.5v15.9h-3.8v-15.2
		c0-4.4-1.9-6.7-5.6-6.7c-3.1,0-6,1.5-6,4.7v17.2H1015z"/>
	<path class="st0" d="M1042.3,153.6h3.8v22.5h0.2l3.8-4.2l7-7.5h4.7l-9.2,9.8l10.1,15h-4.7l-8.2-12.6l-3.7,3.8v8.8h-3.8V153.6z"/>
	<path class="st0" d="M1067.1,156.4v-0.6c0-1.3,0.7-2.2,2.4-2.2c1.6,0,2.4,0.9,2.4,2.2v0.6c0,1.3-0.7,2.2-2.4,2.2
		C1067.8,158.6,1067.1,157.7,1067.1,156.4z M1067.6,164.4h3.8v24.8h-3.8V164.4z"/>
	<path class="st0" d="M1079.6,189.2v-24.8h3.8v4h0.2c1.2-2.8,3.3-4.6,7-4.6c5.1,0,8.3,3.5,8.3,9.5v15.9h-3.8v-15.2
		c0-4.4-1.9-6.7-5.6-6.7c-3.1,0-6,1.5-6,4.7v17.2H1079.6z"/>
	<path class="st0" d="M1115.7,199.3c-7.7,0-10.9-2.2-10.9-6.1c0-2.7,1.5-4.1,3.9-4.8v-0.5c-1.4-0.7-2.2-1.8-2.2-3.5
		c0-2.5,1.8-3.7,4.3-4.3v-0.2c-2.9-1.4-4.7-4.1-4.7-7.6c0-5,3.7-8.5,9.3-8.5c1.8,0,3.4,0.3,4.7,1v-0.4c0-1.9,0.8-3.3,2.9-3.3h3.7
		v3.4h-4.7v1.6c1.8,1.5,2.8,3.7,2.8,6.4c0,5-3.7,8.5-9.4,8.5c-0.8,0-1.7-0.1-2.4-0.2c-1.6,0.4-3.3,1.2-3.3,2.8
		c0,1.5,1.5,1.9,3.8,1.9h5.3c6.1,0,8.8,2.5,8.8,6.6C1127.7,197,1123.7,199.3,1115.7,199.3z M1119,188.9h-8.3
		c-1.6,0.7-2.3,1.8-2.3,3.4c0,2.2,1.5,3.9,5.4,3.9h3.6c4.3,0,6.8-1.3,6.8-4C1124.1,190.2,1122.8,188.9,1119,188.9z M1120.8,173v-1.3
		c0-3.3-2.1-4.8-5.3-4.8c-3.3,0-5.3,1.5-5.3,4.8v1.3c0,3.3,2.1,4.8,5.3,4.8C1118.8,177.8,1120.8,176.3,1120.8,173z"/>
</g>
<polygon class="st4" points="1041.5,31 1014.1,73 1068.9,73 "/>
<polygon class="st3" points="1041.5,31 1014.1,73 1068.9,73 "/>
<polygon class="st5" points="1041.5,123.4 1068.9,81.5 1014.1,81.5 "/>
<polygon class="st3" points="1041.5,123.4 1068.9,81.5 1014.1,81.5 "/>
<g>
	<defs>
		<rect id="SVGID_00000119800750795632059490000014760444555147342732_" x="16" y="-10.5" width="1701.2" height="466.9"/>
	</defs>
	<clipPath id="SVGID_00000176759549953961539830000000026860924375197884_">
		<use xlink:href="#SVGID_00000119800750795632059490000014760444555147342732_"  style="overflow:visible;"/>
	</clipPath>
	<path style="clip-path:url(#SVGID_00000176759549953961539830000000026860924375197884_);" d="M1473.5,27.2
		c-14.9,0-26.9,12.1-26.9,26.9c0,14.9,12.1,26.9,26.9,26.9c14.9,0,26.9-12.1,26.9-26.9C1500.4,39.2,1488.4,27.2,1473.5,27.2
		 M1473.5,29.9c13.3,0,24.2,10.8,24.2,24.2c0,13.3-10.8,24.2-24.2,24.2c-13.3,0-24.2-10.8-24.2-24.2
		C1449.3,40.8,1460.2,29.9,1473.5,29.9"/>
	<path style="clip-path:url(#SVGID_00000176759549953961539830000000026860924375197884_);" d="M1507.9,85.6h-68.8
		c-11.3,0-20.6,13.2-20.6,29.2v15.4h110v-15.4C1528.5,98.8,1519.2,85.6,1507.9,85.6 M1507.9,88.4c4.6,0,8.9,2.6,12.3,7.4
		c3.6,5.1,5.6,11.9,5.6,19.1v12.7h-104.5v-12.7c0-7.2,2-14,5.6-19.1c3.4-4.8,7.8-7.4,12.3-7.4H1507.9z"/>
	<g style="clip-path:url(#SVGID_00000176759549953961539830000000026860924375197884_);">
		<path class="st0" d="M892.1,443.6l-11.1-33.5h4.3l5.5,16.9l3.7,12.6h0.2l3.8-12.6l5.6-16.9h4.2L897,443.6H892.1z"/>
		<path class="st0" d="M910,431.2c0-7.9,4.6-13,11.2-13c6.6,0,11.2,5.1,11.2,13c0,7.9-4.6,13-11.2,13
			C914.6,444.2,910,439.1,910,431.2z M928.3,433v-3.6c0-5.2-2.9-7.8-7.1-7.8c-4.1,0-7.1,2.5-7.1,7.8v3.6c0,5.2,2.9,7.8,7.1,7.8
			C925.3,440.8,928.3,438.2,928.3,433z"/>
		<path class="st0" d="M944.2,443.6c-2.6,0-4.1-1.7-4.1-4.1v-17.3H936v-3.4h2.3c1.6,0,2.2-0.6,2.2-2.3V412h3.5v6.9h5.4v3.4H944v18h5
			v3.4H944.2z"/>
		<path class="st0" d="M955.1,410.9v-0.6c0-1.3,0.7-2.2,2.4-2.2c1.6,0,2.4,0.9,2.4,2.2v0.6c0,1.3-0.7,2.2-2.4,2.2
			C955.9,413,955.1,412.2,955.1,410.9z M955.6,418.8h3.8v24.8h-3.8V418.8z"/>
		<path class="st0" d="M967.6,443.6v-24.8h3.8v4h0.2c1.2-2.8,3.3-4.6,7-4.6c5.1,0,8.3,3.5,8.3,9.5v15.9h-3.8v-15.2
			c0-4.4-1.9-6.7-5.6-6.7c-3.1,0-6,1.5-6,4.7v17.2H967.6z"/>
		<path class="st0" d="M1003.7,453.8c-7.7,0-10.9-2.2-10.9-6.1c0-2.7,1.5-4.1,3.9-4.8v-0.5c-1.4-0.7-2.2-1.8-2.2-3.5
			c0-2.5,1.8-3.7,4.3-4.3v-0.2c-2.9-1.4-4.7-4.1-4.7-7.6c0-5,3.7-8.5,9.3-8.5c1.8,0,3.4,0.3,4.7,1v-0.4c0-1.9,0.8-3.3,2.9-3.3h3.7
			v3.4h-4.7v1.6c1.8,1.5,2.8,3.7,2.8,6.4c0,5-3.7,8.5-9.4,8.5c-0.8,0-1.7-0.1-2.4-0.2c-1.6,0.4-3.3,1.2-3.3,2.8
			c0,1.5,1.5,1.9,3.8,1.9h5.3c6.1,0,8.8,2.5,8.8,6.6C1015.7,451.4,1011.7,453.8,1003.7,453.8z M1007,443.4h-8.3
			c-1.6,0.7-2.3,1.8-2.3,3.4c0,2.2,1.5,3.9,5.4,3.9h3.6c4.3,0,6.8-1.3,6.8-4C1012.1,444.7,1010.8,443.4,1007,443.4z M1008.8,427.5
			v-1.3c0-3.3-2.1-4.8-5.3-4.8c-3.3,0-5.3,1.5-5.3,4.8v1.3c0,3.3,2.1,4.8,5.3,4.8C1006.8,432.3,1008.8,430.7,1008.8,427.5z"/>
		<path class="st0" d="M1035.9,443.6h-4v-33.5h13.3c5.9,0,9.4,3.4,9.4,9.5c0,4.9-2.4,8.2-6.7,9.2l7.7,14.8h-4.6l-7.2-14.4h-7.8
			V443.6z M1045.2,425.7c3.2,0,5-1.7,5-4.8v-2.5c0-3.1-1.9-4.8-5-4.8h-9.3v12.1H1045.2z"/>
		<path class="st0" d="M1059.7,431.2c0-7.9,4.4-13,11.1-13c6.6,0,10.7,5.1,10.7,12.1v1.8h-17.8v1.2c0,4.3,2.7,7.5,7.3,7.5
			c3.1,0,5.5-1.5,6.8-4.3l2.7,2c-1.6,3.4-5.1,5.7-9.8,5.7C1064.1,444.2,1059.7,439.1,1059.7,431.2z M1063.7,429v0.3h13.7v-0.5
			c0-4.4-2.6-7.3-6.6-7.3C1066.6,421.5,1063.7,424.6,1063.7,429z"/>
		<path class="st0" d="M1086,431.2c0-7.9,4.1-13,11-13c4.9,0,7.8,2.4,9.3,5.8l-3.2,1.6c-0.9-2.5-3-4-6-4c-4.6,0-6.9,3.1-6.9,7.4v4.2
			c0,4.3,2.4,7.4,6.9,7.4c3.1,0,5.4-1.5,6.7-4.3l2.8,1.9c-1.6,3.6-4.8,5.9-9.5,5.9C1090.1,444.2,1086,439.1,1086,431.2z"/>
		<path class="st0" d="M1109.9,431.2c0-7.9,4.6-13,11.2-13c6.6,0,11.2,5.1,11.2,13c0,7.9-4.6,13-11.2,13
			C1114.5,444.2,1109.9,439.1,1109.9,431.2z M1128.2,433v-3.6c0-5.2-2.9-7.8-7.1-7.8c-4.1,0-7.1,2.5-7.1,7.8v3.6
			c0,5.2,2.9,7.8,7.1,7.8C1125.2,440.8,1128.2,438.2,1128.2,433z"/>
		<path class="st0" d="M1138.6,443.6v-24.8h3.8v4.6h0.2c0.9-2.4,3.1-4.6,7.2-4.6h1.5v3.8h-2.3c-4.1,0-6.6,1.8-6.6,4.1v16.8H1138.6z"
			/>
		<path class="st0" d="M1171.9,439.6h-0.2c-1.5,3.1-3.8,4.6-7.2,4.6c-6.2,0-10.1-5-10.1-13c0-7.9,3.9-13,10.1-13
			c3.4,0,6,1.5,7.2,4.6h0.2v-14.8h3.8v35.5h-3.8V439.6z M1171.9,435.7v-9.2c0-2.7-2.9-4.8-6.4-4.8c-4.3,0-7,3-7,7.4v4.2
			c0,4.4,2.7,7.4,7,7.4C1169,440.7,1171.9,438.9,1171.9,435.7z"/>
		<path class="st0" d="M1181.5,439.3l2.7-2.2c1.9,2.4,4.2,3.8,7.3,3.8c3.3,0,5.2-1.5,5.2-4c0-1.9-1.1-3.4-4.3-3.9l-2-0.3
			c-4.6-0.7-8-2.5-8-7.2c0-4.9,3.8-7.3,8.8-7.3c4,0,6.6,1.5,8.6,4l-2.5,2.3c-1.1-1.5-3.2-3-6.4-3c-3.2,0-4.8,1.5-4.8,3.8
			c0,2.4,1.7,3.4,4.8,3.8l1.9,0.3c5.5,0.8,7.6,3.2,7.6,7c0,4.8-3.5,7.7-9.2,7.7C1186.7,444.2,1183.7,442.3,1181.5,439.3z"/>
	</g>
</g>
<rect x="991.5" y="282.3" class="st3" width="100" height="100"/>
<g>
	<defs>
		<rect id="SVGID_00000152960316176310365980000011010938618773887623_" x="16" y="-10.5" width="1701.2" height="466.9"/>
	</defs>
	<clipPath id="SVGID_00000172402203658467474030000007177320575563311796_">
		<use xlink:href="#SVGID_00000152960316176310365980000011010938618773887623_"  style="overflow:visible;"/>
	</clipPath>
	
		<circle style="clip-path:url(#SVGID_00000172402203658467474030000007177320575563311796_);fill:none;stroke:#231F20;stroke-width:2.5;" cx="1006.9" cy="293.1" r="1.2"/>
	
		<circle style="clip-path:url(#SVGID_00000172402203658467474030000007177320575563311796_);fill:none;stroke:#231F20;stroke-width:2.5;" cx="1035.9" cy="293.1" r="1.2"/>
	
		<circle style="clip-path:url(#SVGID_00000172402203658467474030000007177320575563311796_);fill:none;stroke:#231F20;stroke-width:2.5;" cx="1064.9" cy="293.1" r="1.2"/>
</g>
<text transform="matrix(1 0 0 1 1013.4105 296.9622)" class="st0 st8 st9">+</text>
<text transform="matrix(1 0 0 1 1042.4143 296.9622)" class="st0 st8 st9">+</text>
<text transform="matrix(1 0 0 1 1071.4905 296.9622)" class="st0 st8 st9">–</text>
<g>
	<defs>
		<rect id="SVGID_00000115483696525723510040000017320047326306095535_" x="16" y="-10.5" width="1701.2" height="466.9"/>
	</defs>
	<clipPath id="SVGID_00000093135429210698296180000004357107731999589509_">
		<use xlink:href="#SVGID_00000115483696525723510040000017320047326306095535_"  style="overflow:visible;"/>
	</clipPath>
	
		<circle style="clip-path:url(#SVGID_00000093135429210698296180000004357107731999589509_);fill:none;stroke:#231F20;stroke-width:2.5;" cx="1006.9" cy="303.1" r="1.2"/>
	
		<circle style="clip-path:url(#SVGID_00000093135429210698296180000004357107731999589509_);fill:none;stroke:#231F20;stroke-width:2.5;" cx="1035.9" cy="303.1" r="1.2"/>
	
		<circle style="clip-path:url(#SVGID_00000093135429210698296180000004357107731999589509_);fill:none;stroke:#231F20;stroke-width:2.5;" cx="1064.9" cy="303.1" r="1.2"/>
</g>
<text transform="matrix(1 0 0 1 1013.4105 306.9622)" class="st0 st8 st9">+</text>
<text transform="matrix(1 0 0 1 1042.4143 306.9622)" class="st0 st8 st9">+</text>
<text transform="matrix(1 0 0 1 1072.2581 306.9622)" class="st0 st8 st9">/</text>
<g>
	<defs>
		<rect id="SVGID_00000160192624884930633100000012024975448844762007_" x="16" y="-10.5" width="1701.2" height="466.9"/>
	</defs>
	<clipPath id="SVGID_00000042005643150610427270000003897128881430132355_">
		<use xlink:href="#SVGID_00000160192624884930633100000012024975448844762007_"  style="overflow:visible;"/>
	</clipPath>
	
		<circle style="clip-path:url(#SVGID_00000042005643150610427270000003897128881430132355_);fill:none;stroke:#231F20;stroke-width:2.5;" cx="1006.9" cy="313.1" r="1.2"/>
	
		<circle style="clip-path:url(#SVGID_00000042005643150610427270000003897128881430132355_);fill:none;stroke:#231F20;stroke-width:2.5;" cx="1035.9" cy="313.1" r="1.2"/>
	
		<circle style="clip-path:url(#SVGID_00000042005643150610427270000003897128881430132355_);fill:none;stroke:#231F20;stroke-width:2.5;" cx="1064.9" cy="313.1" r="1.2"/>
</g>
<text transform="matrix(1 0 0 1 1013.4818 316.9622)" class="st0 st8 st9">–</text>
<text transform="matrix(1 0 0 1 1042.4866 316.9622)" class="st0 st8 st9">–</text>
<text transform="matrix(1 0 0 1 1071.4182 316.9622)" class="st0 st8 st9">+</text>
<g>
	<defs>
		<rect id="SVGID_00000176025817226130938970000016391346990945984183_" x="16" y="-10.5" width="1701.2" height="466.9"/>
	</defs>
	<clipPath id="SVGID_00000030476090914354856360000001111914129147588487_">
		<use xlink:href="#SVGID_00000176025817226130938970000016391346990945984183_"  style="overflow:visible;"/>
	</clipPath>
	
		<circle style="clip-path:url(#SVGID_00000030476090914354856360000001111914129147588487_);fill:none;stroke:#231F20;stroke-width:2.5;" cx="1006.9" cy="323.1" r="1.2"/>
	
		<circle style="clip-path:url(#SVGID_00000030476090914354856360000001111914129147588487_);fill:none;stroke:#231F20;stroke-width:2.5;" cx="1035.9" cy="323.1" r="1.2"/>
	
		<circle style="clip-path:url(#SVGID_00000030476090914354856360000001111914129147588487_);fill:none;stroke:#231F20;stroke-width:2.5;" cx="1064.9" cy="323.1" r="1.2"/>
</g>
<text transform="matrix(1 0 0 1 1013.4105 326.9622)" class="st0 st8 st9">+</text>
<text transform="matrix(1 0 0 1 1042.4143 326.9622)" class="st0 st8 st9">+</text>
<text transform="matrix(1 0 0 1 1071.4905 326.9622)" class="st0 st8 st9">–</text>
<g>
	<defs>
		<rect id="SVGID_00000183933674816142919970000016815008955456307086_" x="16" y="-10.5" width="1701.2" height="466.9"/>
	</defs>
	<clipPath id="SVGID_00000142151625853390965660000007659201021064711058_">
		<use xlink:href="#SVGID_00000183933674816142919970000016815008955456307086_"  style="overflow:visible;"/>
	</clipPath>
	
		<circle style="clip-path:url(#SVGID_00000142151625853390965660000007659201021064711058_);fill:none;stroke:#231F20;stroke-width:2.5;" cx="1006.9" cy="333.1" r="1.2"/>
	
		<circle style="clip-path:url(#SVGID_00000142151625853390965660000007659201021064711058_);fill:none;stroke:#231F20;stroke-width:2.5;" cx="1035.9" cy="333.1" r="1.2"/>
	
		<circle style="clip-path:url(#SVGID_00000142151625853390965660000007659201021064711058_);fill:none;stroke:#231F20;stroke-width:2.5;" cx="1064.9" cy="333.1" r="1.2"/>
</g>
<text transform="matrix(1 0 0 1 1013.4105 336.9622)" class="st0 st8 st9">+</text>
<text transform="matrix(1 0 0 1 1042.4866 336.9622)" class="st0 st8 st9">–</text>
<text transform="matrix(1 0 0 1 1071.4182 336.9622)" class="st0 st8 st9">+</text>
<g>
	<defs>
		<rect id="SVGID_00000081616565651850586570000003083894310496118696_" x="16" y="-10.5" width="1701.2" height="466.9"/>
	</defs>
	<clipPath id="SVGID_00000075882474164426925510000014564003741089652659_">
		<use xlink:href="#SVGID_00000081616565651850586570000003083894310496118696_"  style="overflow:visible;"/>
	</clipPath>
	
		<circle style="clip-path:url(#SVGID_00000075882474164426925510000014564003741089652659_);fill:none;stroke:#231F20;stroke-width:2.5;" cx="1006.9" cy="343.1" r="1.2"/>
	
		<circle style="clip-path:url(#SVGID_00000075882474164426925510000014564003741089652659_);fill:none;stroke:#231F20;stroke-width:2.5;" cx="1035.9" cy="343.1" r="1.2"/>
	
		<circle style="clip-path:url(#SVGID_00000075882474164426925510000014564003741089652659_);fill:none;stroke:#231F20;stroke-width:2.5;" cx="1064.9" cy="343.1" r="1.2"/>
</g>
<text transform="matrix(1 0 0 1 1013.4818 346.9622)" class="st0 st8 st9">–</text>
<text transform="matrix(1 0 0 1 1043.2542 346.9622)" class="st0 st8 st9">/</text>
<text transform="matrix(1 0 0 1 1071.4905 346.9622)" class="st0 st8 st9">–</text>
<g>
	<defs>
		<rect id="SVGID_00000083068694304050380350000001070058345088056762_" x="16" y="-10.5" width="1701.2" height="466.9"/>
	</defs>
	<clipPath id="SVGID_00000043437420180477690850000002568586408781626034_">
		<use xlink:href="#SVGID_00000083068694304050380350000001070058345088056762_"  style="overflow:visible;"/>
	</clipPath>
	
		<circle style="clip-path:url(#SVGID_00000043437420180477690850000002568586408781626034_);fill:none;stroke:#231F20;stroke-width:2.5;" cx="1006.9" cy="353.1" r="1.2"/>
	
		<circle style="clip-path:url(#SVGID_00000043437420180477690850000002568586408781626034_);fill:none;stroke:#231F20;stroke-width:2.5;" cx="1035.9" cy="353.1" r="1.2"/>
	
		<circle style="clip-path:url(#SVGID_00000043437420180477690850000002568586408781626034_);fill:none;stroke:#231F20;stroke-width:2.5;" cx="1064.9" cy="353.1" r="1.2"/>
</g>
<text transform="matrix(1 0 0 1 1013.4818 356.9622)" class="st0 st8 st9">–</text>
<text transform="matrix(1 0 0 1 1042.4143 356.9622)" class="st0 st8 st9">+</text>
<text transform="matrix(1 0 0 1 1071.4905 356.9622)" class="st0 st8 st9">–</text>
<g>
	<defs>
		<rect id="SVGID_00000155146802228214699060000009343265178592726704_" x="16" y="-10.5" width="1701.2" height="466.9"/>
	</defs>
	<clipPath id="SVGID_00000106837064065982838150000005462980273147976362_">
		<use xlink:href="#SVGID_00000155146802228214699060000009343265178592726704_"  style="overflow:visible;"/>
	</clipPath>
	
		<circle style="clip-path:url(#SVGID_00000106837064065982838150000005462980273147976362_);fill:none;stroke:#231F20;stroke-width:2.5;" cx="1006.9" cy="363.1" r="1.2"/>
	
		<circle style="clip-path:url(#SVGID_00000106837064065982838150000005462980273147976362_);fill:none;stroke:#231F20;stroke-width:2.5;" cx="1035.9" cy="363.1" r="1.2"/>
	
		<circle style="clip-path:url(#SVGID_00000106837064065982838150000005462980273147976362_);fill:none;stroke:#231F20;stroke-width:2.5;" cx="1064.9" cy="363.1" r="1.2"/>
</g>
<text transform="matrix(1 0 0 1 1013.4105 366.9622)" class="st0 st8 st9">+</text>
<text transform="matrix(1 0 0 1 1042.4866 366.9622)" class="st0 st8 st9">–</text>
<text transform="matrix(1 0 0 1 1071.4905 366.9622)" class="st0 st8 st9">–</text>
<g>
	<defs>
		<rect id="SVGID_00000096022681368559325930000008642571903924742074_" x="16" y="-10.5" width="1701.2" height="466.9"/>
	</defs>
	<clipPath id="SVGID_00000022557320898399478800000006125420780702061977_">
		<use xlink:href="#SVGID_00000096022681368559325930000008642571903924742074_"  style="overflow:visible;"/>
	</clipPath>
	
		<circle style="clip-path:url(#SVGID_00000022557320898399478800000006125420780702061977_);fill:none;stroke:#231F20;stroke-width:2.5;" cx="1006.9" cy="373.1" r="1.2"/>
	
		<circle style="clip-path:url(#SVGID_00000022557320898399478800000006125420780702061977_);fill:none;stroke:#231F20;stroke-width:2.5;" cx="1035.9" cy="373.1" r="1.2"/>
	
		<circle style="clip-path:url(#SVGID_00000022557320898399478800000006125420780702061977_);fill:none;stroke:#231F20;stroke-width:2.5;" cx="1064.9" cy="373.1" r="1.2"/>
</g>
<text transform="matrix(1 0 0 1 1013.4105 376.9622)" class="st0 st8 st9">+</text>
<text transform="matrix(1 0 0 1 1042.4143 376.9622)" class="st0 st8 st9">+</text>
<text transform="matrix(1 0 0 1 1071.4182 376.9622)" class="st0 st8 st9">+</text>
<line class="st18" x1="609.9" y1="337.3" x2="933.5" y2="337.3"/>
<line class="st19" x1="612" y1="339.8" x2="612" y2="231.8"/>
<line class="st20" x1="1041.5" y1="258.4" x2="1041.5" y2="231.4"/>
<line class="st21" x1="1474.1" y1="337.3" x2="1149.5" y2="337.3"/>
<line class="st19" x1="1472" y1="339.8" x2="1472" y2="231.8"/>
</svg>
